/Users/rebeca.ferreira/Desktop/user-api/src/main/java/com/example/demo/service/IUserService.java
/Users/rebeca.ferreira/Desktop/user-api/src/main/java/com/example/demo/model/User.java
/Users/rebeca.ferreira/Desktop/user-api/src/main/java/com/example/demo/dao/UserDAO.java
/Users/rebeca.ferreira/Desktop/user-api/src/main/java/com/example/demo/DemoApplication.java
/Users/rebeca.ferreira/Desktop/user-api/src/main/java/com/example/demo/controller/UserController.java
/Users/rebeca.ferreira/Desktop/user-api/src/main/java/com/example/demo/service/UserServiceImpl.java
/Users/rebeca.ferreira/Desktop/user-api/src/main/java/com/example/demo/dto/UserDTO.java
